rv32imc_ss/reference_dump_factorial.vcd
$version Generated by VerilatedVcd $end
$timescale 1ps $end
 $var wire 1 # clk $end
 $var wire 1 $ reset $end
 $var wire 1 % instr_req $end
 $var wire 1 & instr_ack $end
 $var wire 1 ' instr_err $end
 $var wire 32 ( instr_addr [31:0] $end
 $var wire 32 ) instr_data_i [31:0] $end
 $var wire 1 * data_req $end
 $var wire 1 + data_wr $end
 $var wire 1 , data_ack $end
 $var wire 1 - data_err $end
 $var wire 4 . data_be [3:0] $end
 $var wire 32 / data_addr [31:0] $end
 $var wire 32 0 data_data_o [31:0] $end
 $var wire 32 1 data_data_i [31:0] $end
 $scope module rv32imc_ss_handshake $end
  $var wire 32 \" INITIAL_GP [31:0] $end
  $var wire 32 ]" INITIAL_SP [31:0] $end
  $var wire 1 2 clk $end
  $var wire 1 3 reset $end
  $var wire 1 4 instr_req $end
  $var wire 1 5 instr_ack $end
  $var wire 1 6 instr_err $end
  $var wire 32 7 instr_addr [31:0] $end
  $var wire 32 8 instr_data_i [31:0] $end
  $var wire 1 9 data_req $end
  $var wire 1 : data_wr $end
  $var wire 1 ; data_ack $end
  $var wire 1 < data_err $end
  $var wire 4 = data_be [3:0] $end
  $var wire 32 > data_addr [31:0] $end
  $var wire 32 ? data_data_o [31:0] $end
  $var wire 32 @ data_data_i [31:0] $end
  $var wire 32 A if_instruction [31:0] $end
  $var wire 1 B if_valid $end
  $var wire 1 C if_instr_req $end
  $var wire 32 D pc_current [31:0] $end
  $var wire 32 E pc_next [31:0] $end
  $var wire 32 F pc_overwrite_data [31:0] $end
  $var wire 1 G pc_overwrite_enable $end
  $var wire 1 H rf_write0_enable $end
  $var wire 5 I rf_write0_index [4:0] $end
  $var wire 32 J rf_read0_data [31:0] $end
  $var wire 32 K rf_read1_data [31:0] $end
  $var wire 32 L rf_write0_data [31:0] $end
  $var wire 1 M id_write0_enable $end
  $var wire 5 N rf_read0_index [4:0] $end
  $var wire 5 O rf_read1_index [4:0] $end
  $var wire 5 P id_write0_index [4:0] $end
  $var wire 32 Q immediate [31:0] $end
  $var wire 6 R func [5:0] $end
  $var wire 1 S is_mem_or_io $end
  $var wire 1 T is_compressed $end
  $var wire 1 U alu_op0_use_pc $end
  $var wire 1 V alu_op1_use_imm $end
  $var wire 5 W alu_func [4:0] $end
  $var wire 4 X lsu_req_type [3:0] $end
  $var wire 1 Y lsu_wr $end
  $var wire 1 Z lsu_req $end
  $var wire 2 [ id_wb_source [1:0] $end
  $var wire 3 \ br_cond [2:0] $end
  $var wire 1 ] br_is_cond $end
  $var wire 1 ^ br_is_jmp $end
  $var wire 6 _ id_instruction_format [5:0] $end
  $var wire 1 ` lsu_req_suppressor $end
  $var wire 32 a alu_read0_data [31:0] $end
  $var wire 32 b alu_read1_data [31:0] $end
  $var wire 32 c alu_result [31:0] $end
  $var wire 1 d branch_taken $end
  $var wire 32 e lsu_address [31:0] $end
  $var wire 32 f lsu_data_o [31:0] $end
  $var wire 1 g lsu_valid $end
  $var wire 1 h lsu_error $end
  $var wire 1 i lsu_stall $end
  $var wire 2 j wb_source [1:0] $end
  $var wire 1 k enable_mut_pc $end
  $var wire 1 l enable_mut_rf $end
  $var wire 1 m enable_mut_if $end
  $var wire 1 n enable_mut_csr $end
  $scope module inst_alu $end
   $var wire 5 o func [4:0] $end
   $var wire 32 p read0_data [31:0] $end
   $var wire 32 q read1_data [31:0] $end
   $var wire 32 r result [31:0] $end
   $var wire 1 s f_alternate $end
   $var wire 3 t f_operation [2:0] $end
  $upscope $end
  $scope module inst_branch $end
   $var wire 32 u rf_read0 [31:0] $end
   $var wire 32 v rf_read1 [31:0] $end
   $var wire 3 w cond [2:0] $end
   $var wire 1 x is_cond $end
   $var wire 1 y is_jmp $end
   $var wire 1 z branch_taken $end
   $var wire 1 { cond_statisfied $end
  $upscope $end
  $scope module inst_if $end
   $var wire 1 | clk $end
   $var wire 1 } reset $end
   $var wire 1 ~ if_enable $end
   $var wire 32 !! if_address_current [31:0] $end
   $var wire 32 "! if_address_next [31:0] $end
   $var wire 32 #! if_instruction [31:0] $end
   $var wire 1 $! if_valid $end
   $var wire 1 %! instr_req $end
   $var wire 1 &! instr_ack $end
   $var wire 1 '! instr_err $end
   $var wire 32 (! instr_addr [31:0] $end
   $var wire 32 )! instr_data_i [31:0] $end
   $var wire 32 ^" InstrNop [31:0] $end
   $var wire 1 *! external_valid $end
   $var wire 32 +! instr_buffer [31:0] $end
  $upscope $end
  $scope module inst_instr_dec $end
   $var wire 32 ,! instruction [31:0] $end
   $var wire 5 -! rf_read0_index [4:0] $end
   $var wire 5 .! rf_read1_index [4:0] $end
   $var wire 5 /! rf_write0_index [4:0] $end
   $var wire 6 0! instruction_format [5:0] $end
   $var wire 6 1! func [5:0] $end
   $var wire 1 2! is_mem_or_io $end
   $var wire 1 3! is_compressed $end
   $var wire 7 4! opcode [6:0] $end
   $var wire 1 5! is_r_type $end
   $var wire 1 6! is_i_type $end
   $var wire 1 7! is_s_type $end
   $var wire 1 8! is_u_type $end
   $var wire 5 9! rs1 [4:0] $end
   $var wire 5 :! rs2 [4:0] $end
   $var wire 5 ;! rd [4:0] $end
   $var wire 1 <! is_u_subtype_j $end
   $var wire 1 =! is_s_subtype_b $end
   $var wire 3 >! funct3 [2:0] $end
   $var wire 7 ?! funct7 [6:0] $end
   $var wire 1 @! alternative_func $end
   $var wire 1 A! promote_priviledge_m $end
  $upscope $end
  $scope module inst_instr_dec_func $end
   $var wire 6 B! instruction_format [5:0] $end
   $var wire 6 C! func [5:0] $end
   $var wire 1 D! is_mem_or_io [0:0] $end
   $var wire 1 E! rf_write0_enable $end
   $var wire 1 F! alu_op0_use_pc $end
   $var wire 1 G! alu_op1_use_imm $end
   $var wire 5 H! alu_func [4:0] $end
   $var wire 4 I! ram_req [3:0] $end
   $var wire 1 J! ram_wr $end
   $var wire 2 K! wb_source [1:0] $end
   $var wire 3 L! br_cond [2:0] $end
   $var wire 1 M! br_is_cond $end
   $var wire 1 N! br_jmp $end
   $var wire 1 O! is_jalr $end
  $upscope $end
  $scope module inst_instr_dec_imm $end
   $var wire 32 P! instruction [31:0] $end
   $var wire 6 Q! instruction_format [5:0] $end
   $var wire 32 R! immediate [31:0] $end
   $var wire 1 S! is_r_type $end
   $var wire 1 T! is_i_type $end
   $var wire 1 U! is_s_type $end
   $var wire 1 V! is_s_subtype_b $end
   $var wire 1 W! is_u_type $end
   $var wire 1 X! is_u_subtype_j $end
   $var wire 11 Y! imm_30_20 [10:0] $end
   $var wire 6 Z! imm_30_25 [5:0] $end
   $var wire 4 [! imm_24_21 [3:0] $end
   $var wire 8 \! imm_19_12 [7:0] $end
   $var wire 4 ]! imm_11_8 [3:0] $end
   $var wire 1 ^! imm_20 [0:0] $end
   $var wire 1 _! imm_7 [0:0] $end
   $var wire 1 `! is_u_not_j $end
   $var wire 20 a! sign [30:11] $end
   $var wire 32 b! imm [31:0] $end
  $upscope $end
  $scope module inst_lsu $end
   $var wire 1 c! clk $end
   $var wire 1 d! reset $end
   $var wire 1 e! req $end
   $var wire 4 f! req_type [3:0] $end
   $var wire 1 g! wr $end
   $var wire 32 h! address [31:0] $end
   $var wire 32 i! data_i [31:0] $end
   $var wire 32 j! data_o [31:0] $end
   $var wire 1 k! valid $end
   $var wire 1 l! error $end
   $var wire 1 m! stall $end
   $var wire 1 n! dext_req $end
   $var wire 1 o! dext_wr $end
   $var wire 1 p! dext_ack $end
   $var wire 1 q! dext_err $end
   $var wire 4 r! dext_be [3:0] $end
   $var wire 32 s! dext_addr [31:0] $end
   $var wire 32 t! dext_do [31:0] $end
   $var wire 32 u! dext_di [31:0] $end
   $var wire 4 v! dext_be_comb [3:0] $end
   $var wire 32 w! dext_di_comb [31:0] $end
   $var wire 1 x! req_signed $end
   $var wire 2 y! req_size [1:0] $end
   $var wire 1 z! req_active $end
   $var wire 24 {! sign [31:8] $end
   $var wire 1 |! sign_16 $end
   $var wire 1 }! sign_8 $end
   $var wire 1 ~! sign_bit $end
  $upscope $end
  $scope module inst_pc $end
   $var wire 32 \" INITIAL_GP [31:0] $end
   $var wire 1 !" clk $end
   $var wire 1 "" reset $end
   $var wire 1 #" stall $end
   $var wire 1 $" is_compressed $end
   $var wire 32 %" pc_current [31:0] $end
   $var wire 32 &" pc_next [31:0] $end
   $var wire 32 '" pc_overwrite_data [31:0] $end
   $var wire 1 (" pc_overwrite_enable $end
  $upscope $end
  $scope module inst_registerfile $end
   $var wire 1 _" ASYNC_READ $end
   $var wire 1 )" clk $end
   $var wire 1 *" reset $end
   $var wire 5 +" read0_index [4:0] $end
   $var wire 32 ," read0_data [31:0] $end
   $var wire 5 -" read1_index [4:0] $end
   $var wire 32 ." read1_data [31:0] $end
   $var wire 5 /" write0_index [4:0] $end
   $var wire 32 0" write0_data [31:0] $end
   $var wire 1 1" write0_enable $end
   $var wire 32 2" registerfile[0] [31:0] $end
   $var wire 32 3" registerfile[1] [31:0] $end
   $var wire 32 4" registerfile[2] [31:0] $end
   $var wire 32 5" registerfile[3] [31:0] $end
   $var wire 32 6" registerfile[4] [31:0] $end
   $var wire 32 7" registerfile[5] [31:0] $end
   $var wire 32 8" registerfile[6] [31:0] $end
   $var wire 32 9" registerfile[7] [31:0] $end
   $var wire 32 :" registerfile[8] [31:0] $end
   $var wire 32 ;" registerfile[9] [31:0] $end
   $var wire 32 <" registerfile[10] [31:0] $end
   $var wire 32 =" registerfile[11] [31:0] $end
   $var wire 32 >" registerfile[12] [31:0] $end
   $var wire 32 ?" registerfile[13] [31:0] $end
   $var wire 32 @" registerfile[14] [31:0] $end
   $var wire 32 A" registerfile[15] [31:0] $end
   $var wire 32 B" registerfile[16] [31:0] $end
   $var wire 32 C" registerfile[17] [31:0] $end
   $var wire 32 D" registerfile[18] [31:0] $end
   $var wire 32 E" registerfile[19] [31:0] $end
   $var wire 32 F" registerfile[20] [31:0] $end
   $var wire 32 G" registerfile[21] [31:0] $end
   $var wire 32 H" registerfile[22] [31:0] $end
   $var wire 32 I" registerfile[23] [31:0] $end
   $var wire 32 J" registerfile[24] [31:0] $end
   $var wire 32 K" registerfile[25] [31:0] $end
   $var wire 32 L" registerfile[26] [31:0] $end
   $var wire 32 M" registerfile[27] [31:0] $end
   $var wire 32 N" registerfile[28] [31:0] $end
   $var wire 32 O" registerfile[29] [31:0] $end
   $var wire 32 P" registerfile[30] [31:0] $end
  $upscope $end
  $scope module inst_stall $end
   $var wire 1 Q" clk $end
   $var wire 1 R" reset $end
   $var wire 1 S" is_instr_new $end
   $var wire 1 T" is_mem_or_io $end
   $var wire 1 U" is_branch_taken $end
   $var wire 1 V" io_lsu_valid $end
   $var wire 1 W" enable_mut_pc $end
   $var wire 1 X" enable_mut_rf $end
   $var wire 1 Y" enable_mut_if $end
   $var wire 1 Z" enable_mut_csr $end
   $var wire 1 [" enable_mut_if_next $end
  $upscope $end
 $upscope $end
$enddefinitions $end


#0
1#
1$
1%
0&
0'
b00010000000000000000000000000000 (
b00000000000000000000000000000000 )
0*
0+
0,
0-
b0000 .
b00000000000000000000000000000000 /
b00000000000000000000000000000000 0
b00000000000000000000000000000000 1
12
13
14
05
06
b00010000000000000000000000000000 7
b00000000000000000000000000000000 8
09
0:
0;
0<
b0000 =
b00000000000000000000000000000000 >
b00000000000000000000000000000000 ?
b00000000000000000000000000000000 @
b00000000000000000000000000010011 A
0B
1C
b00010000000000000000000000000000 D
b00010000000000000000000000000100 E
b00000000000000000000000000000000 F
0G
0H
b00000 I
b00000000000000000000000000000000 J
b00000000000000000000000000000000 K
b00000000000000000000000000000000 L
1M
b00000 N
b00000 O
b00000 P
b00000000000000000000000000000000 Q
b000000 R
0S
0T
0U
1V
b00000 W
b0000 X
0Y
0Z
b00 [
b000 \
0]
0^
b010000 _
0`
b00000000000000000000000000000000 a
b00000000000000000000000000000000 b
b00000000000000000000000000000000 c
0d
b00000000000000000000000000000000 e
b00000000000000000000000000000000 f
0g
0h
0i
b00 j
0k
0l
1m
0n
b00000 o
b00000000000000000000000000000000 p
b00000000000000000000000000000000 q
b00000000000000000000000000000000 r
0s
b000 t
b00000000000000000000000000000000 u
b00000000000000000000000000000000 v
b000 w
0x
0y
0z
1{
1|
1}
1~
b00010000000000000000000000000000 !!
b00010000000000000000000000000100 "!
b00000000000000000000000000010011 #!
0$!
1%!
0&!
0'!
b00010000000000000000000000000000 (!
b00000000000000000000000000000000 )!
0*!
b00000000000000000000000000010011 +!
b00000000000000000000000000010011 ,!
b00000 -!
b00000 .!
b00000 /!
b010000 0!
b000000 1!
02!
03!
b0010011 4!
05!
16!
07!
08!
b00000 9!
b00000 :!
b00000 ;!
0<!
0=!
b000 >!
b0000000 ?!
0@!
0A!
b010000 B!
b000000 C!
0D!
1E!
0F!
1G!
b00000 H!
b0000 I!
0J!
b00 K!
b000 L!
0M!
0N!
0O!
b00000000000000000000000000010011 P!
b010000 Q!
b00000000000000000000000000000000 R!
0S!
1T!
0U!
0V!
0W!
0X!
b00000000000 Y!
b000000 Z!
b0000 [!
b00000000 \!
b0000 ]!
0^!
0_!
0`!
b00000000000000000000 a!
b00000000000000000000000000000000 b!
1c!
1d!
0e!
b0000 f!
0g!
b00000000000000000000000000000000 h!
b00000000000000000000000000000000 i!
b00000000000000000000000000000000 j!
0k!
0l!
0m!
0n!
0o!
0p!
0q!
b0000 r!
b00000000000000000000000000000000 s!
b00000000000000000000000000000000 t!
b00000000000000000000000000000000 u!
b0001 v!
b00000000000000000000000000000000 w!
0x!
b00 y!
0z!
b000000000000000000000000 {!
0|!
0}!
0~!
1!"
1""
1#"
0$"
b00010000000000000000000000000000 %"
b00010000000000000000000000000100 &"
b00000000000000000000000000000000 '"
0("
1)"
1*"
b00000 +"
b00000000000000000000000000000000 ,"
b00000 -"
b00000000000000000000000000000000 ."
b00000 /"
b00000000000000000000000000000000 0"
01"
b00000000000000000000000000000000 2"
b00000000000000000000000000000000 3"
b00000000000000000000000000000000 4"
b00000000000000000000000000000000 5"
b00000000000000000000000000000000 6"
b00000000000000000000000000000000 7"
b00000000000000000000000000000000 8"
b00000000000000000000000000000000 9"
b00000000000000000000000000000000 :"
b00000000000000000000000000000000 ;"
b00000000000000000000000000000000 <"
b00000000000000000000000000000000 ="
b00000000000000000000000000000000 >"
b00000000000000000000000000000000 ?"
b00000000000000000000000000000000 @"
b00000000000000000000000000000000 A"
b00000000000000000000000000000000 B"
b00000000000000000000000000000000 C"
b00000000000000000000000000000000 D"
b00000000000000000000000000000000 E"
b00000000000000000000000000000000 F"
b00000000000000000000000000000000 G"
b00000000000000000000000000000000 H"
b00000000000000000000000000000000 I"
b00000000000000000000000000000000 J"
b00000000000000000000000000000000 K"
b00000000000000000000000000000000 L"
b00000000000000000000000000000000 M"
b00000000000000000000000000000000 N"
b00000000000000000000000000000000 O"
b00000000000000000000000000000000 P"
1Q"
1R"
0S"
0T"
0U"
0V"
0W"
0X"
1Y"
0Z"
0["
b00010000000000000000000000000000 \"
b01111111111111111111111111110000 ]"
b00000000000000000000000000010011 ^"
1_"
#1
#5000
0#
02
0|
0c!
0!"
0)"
0Q"
#10000
1#
0$
12
03
1|
0}
1c!
0d!
1!"
0""
1)"
0*"
1Q"
0R"
#10001
1&
b00000000010100000000001010010011 )
15
b00000000010100000000001010010011 8
b00000000010100000000001010010011 A
1B
b00000000000000000000000000000101 F
1H
b00101 I
b00000000000000000000000000000101 L
b00101 P
b00000000000000000000000000000101 Q
b00000000000000000000000000000101 b
b00000000000000000000000000000101 c
b00000000000000000000000000000101 e
1k
1l
b00000000000000000000000000000101 q
b00000000000000000000000000000101 r
b00000000010100000000001010010011 #!
1$!
1&!
b00000000010100000000001010010011 )!
1*!
b00000000010100000000001010010011 ,!
b00101 /!
b00101 :!
b00101 ;!
b00000000010100000000001010010011 P!
b00000000000000000000000000000101 R!
b00000000101 Y!
b0010 [!
b0010 ]!
1^!
1_!
b00000000000000000000000000000101 b!
b00000000000000000000000000000101 h!
b0010 v!
0#"
b00000000000000000000000000000101 '"
b00101 /"
b00000000000000000000000000000101 0"
11"
1S"
1W"
1X"
1["
#10002
#15000
0#
02
0|
0c!
0!"
0)"
0Q"
#20000
1#
b00010000000000000000000000000100 (
12
b00010000000000000000000000000100 7
b00010000000000000000000000000100 D
b00010000000000000000000000001000 E
1|
b00010000000000000000000000000100 !!
b00010000000000000000000000001000 "!
b00010000000000000000000000000100 (!
b00000000010100000000001010010011 +!
1c!
1!"
b00010000000000000000000000000100 %"
b00010000000000000000000000001000 &"
1)"
b00000000000000000000000000000101 7"
1Q"
#20001
b00000000000100000000001100010011 )
b00000000000100000000001100010011 8
b00000000000100000000001100010011 A
b00000000000000000000000000000001 F
b00110 I
b00000000000000000000000000000001 L
b00110 P
b00000000000000000000000000000001 Q
b00000000000000000000000000000001 b
b00000000000000000000000000000001 c
b00000000000000000000000000000001 e
b00000000000000000000000000000001 q
b00000000000000000000000000000001 r
b00000000000100000000001100010011 #!
b00000000000100000000001100010011 )!
b00000000000100000000001100010011 ,!
b00110 /!
b00001 :!
b00110 ;!
b00000000000100000000001100010011 P!
b00000000000000000000000000000001 R!
b00000000001 Y!
b0000 [!
b0011 ]!
0_!
b00000000000000000000000000000001 b!
b00000000000000000000000000000001 h!
b00000000000000000000000000000001 '"
b00110 /"
b00000000000000000000000000000001 0"
#20002
#25000
0#
02
0|
0c!
0!"
0)"
0Q"
#30000
1#
b00010000000000000000000000001000 (
12
b00010000000000000000000000001000 7
b00010000000000000000000000001000 D
b00010000000000000000000000001100 E
1|
b00010000000000000000000000001000 !!
b00010000000000000000000000001100 "!
b00010000000000000000000000001000 (!
b00000000000100000000001100010011 +!
1c!
1!"
b00010000000000000000000000001000 %"
b00010000000000000000000000001100 &"
1)"
b00000000000000000000000000000001 8"
1Q"
#30001
b00000010000000101000001001100011 )
b00000010000000101000001001100011 8
b00000010000000101000001001100011 A
b00010000000000000000000000101100 F
0H
b00000 I
b00000000000000000000000000000101 J
b00010000000000000000000000101100 L
0M
b00101 N
b00000 P
b00000000000000000000000000100100 Q
1U
1]
b001100 _
b00010000000000000000000000001000 a
b00000000000000000000000000100100 b
b00010000000000000000000000101100 c
b00010000000000000000000000101100 e
b00010000000000000000000000001000 p
b00000000000000000000000000100100 q
b00010000000000000000000000101100 r
b00000000000000000000000000000101 u
1x
0{
b00000010000000101000001001100011 #!
b00000010000000101000001001100011 )!
b00000010000000101000001001100011 ,!
b00101 -!
b00000 /!
b001100 0!
b1100011 4!
06!
17!
b00101 9!
b00000 :!
b00100 ;!
1=!
b0000001 ?!
b001100 B!
0E!
1F!
1M!
b00000010000000101000001001100011 P!
b001100 Q!
b00000000000000000000000000100100 R!
0T!
1U!
1V!
b00000100000 Y!
b000001 Z!
b00101000 \!
b0010 ]!
0^!
b00000000000000000000000000100100 b!
b00010000000000000000000000101100 h!
b0001 v!
b00010000000000000000000000101100 '"
b00101 +"
b00000000000000000000000000000101 ,"
b00000 /"
b00010000000000000000000000101100 0"
01"
#30002
#35000
0#
02
0|
0c!
0!"
0)"
0Q"
#40000
1#
b00010000000000000000000000001100 (
12
b00010000000000000000000000001100 7
b00010000000000000000000000001100 D
b00010000000000000000000000010000 E
b00010000000000000000000000110000 F
b00010000000000000000000000110000 L
b00010000000000000000000000001100 a
b00010000000000000000000000110000 c
b00010000000000000000000000110000 e
b00010000000000000000000000001100 p
b00010000000000000000000000110000 r
1|
b00010000000000000000000000001100 !!
b00010000000000000000000000010000 "!
b00010000000000000000000000001100 (!
b00000010000000101000001001100011 +!
1c!
b00010000000000000000000000110000 h!
1!"
b00010000000000000000000000001100 %"
b00010000000000000000000000010000 &"
b00010000000000000000000000110000 '"
1)"
b00010000000000000000000000110000 0"
1Q"
#40001
b00000000000000000000001110010011 )
b00000000000000000000001110010011 8
b00000000000000000000001110010011 A
b00000000000000000000000000000000 F
1H
b00111 I
b00000000000000000000000000000000 J
b00000000000000000000000000000000 L
1M
b00000 N
b00111 P
b00000000000000000000000000000000 Q
0U
0]
b010000 _
b00000000000000000000000000000000 a
b00000000000000000000000000000000 b
b00000000000000000000000000000000 c
b00000000000000000000000000000000 e
b00000000000000000000000000000000 p
b00000000000000000000000000000000 q
b00000000000000000000000000000000 r
b00000000000000000000000000000000 u
0x
1{
b00000000000000000000001110010011 #!
b00000000000000000000001110010011 )!
b00000000000000000000001110010011 ,!
b00000 -!
b00111 /!
b010000 0!
b0010011 4!
16!
07!
b00000 9!
b00111 ;!
0=!
b0000000 ?!
b010000 B!
1E!
0F!
0M!
b00000000000000000000001110010011 P!
b010000 Q!
b00000000000000000000000000000000 R!
1T!
0U!
0V!
b00000000000 Y!
b000000 Z!
b00000000 \!
b0011 ]!
1_!
b00000000000000000000000000000000 b!
b00000000000000000000000000000000 h!
b00000000000000000000000000000000 '"
b00000 +"
b00000000000000000000000000000000 ,"
b00111 /"
b00000000000000000000000000000000 0"
11"
#40002
#45000
0#
02
0|
0c!
0!"
0)"
0Q"
#50000
1#
b00010000000000000000000000010000 (
12
b00010000000000000000000000010000 7
b00010000000000000000000000010000 D
b00010000000000000000000000010100 E
1|
b00010000000000000000000000010000 !!
b00010000000000000000000000010100 "!
b00010000000000000000000000010000 (!
b00000000000000000000001110010011 +!
1c!
1!"
b00010000000000000000000000010000 %"
b00010000000000000000000000010100 &"
1)"
1Q"
#50001
b00000000000000000000111000010011 )
b00000000000000000000111000010011 8
b00000000000000000000111000010011 A
b11100 I
b11100 P
b00000000000000000000111000010011 #!
b00000000000000000000111000010011 )!
b00000000000000000000111000010011 ,!
b11100 /!
b11100 ;!
b00000000000000000000111000010011 P!
b1110 ]!
0_!
b11100 /"
#50002
#55000
0#
02
0|
0c!
0!"
0)"
0Q"
#60000
1#
b00010000000000000000000000010100 (
12
b00010000000000000000000000010100 7
b00010000000000000000000000010100 D
b00010000000000000000000000011000 E
1|
b00010000000000000000000000010100 !!
b00010000000000000000000000011000 "!
b00010000000000000000000000010100 (!
b00000000000000000000111000010011 +!
1c!
1!"
b00010000000000000000000000010100 %"
b00010000000000000000000000011000 &"
1)"
1Q"
#60001
b00000000011000111000001110110011 )
b00000000011000111000001110110011 8
b00000000011000111000001110110011 A
b00000000000000000000000000000001 F
b00111 I
b00000000000000000000000000000001 K
b00000000000000000000000000000001 L
b00111 N
b00110 O
b00111 P
0V
b100000 _
b00000000000000000000000000000001 b
b00000000000000000000000000000001 c
b00000000000000000000000000000001 e
b00000000000000000000000000000001 q
b00000000000000000000000000000001 r
b00000000000000000000000000000001 v
0{
b00000000011000111000001110110011 #!
b00000000011000111000001110110011 )!
b00000000011000111000001110110011 ,!
b00111 -!
b00110 .!
b00111 /!
b100000 0!
b0110011 4!
15!
06!
b00111 9!
b00110 :!
b00111 ;!
b100000 B!
0G!
b00000000011000111000001110110011 P!
b100000 Q!
1S!
0T!
b00000000110 Y!
b0011 [!
b00111000 \!
b0011 ]!
1_!
b00000000000000000000000000000110 b!
b00000000000000000000000000000001 h!
b00000000000000000000000000000001 i!
b0010 v!
b00000000000000000000000000000001 '"
b00111 +"
b00110 -"
b00000000000000000000000000000001 ."
b00111 /"
b00000000000000000000000000000001 0"
#60002
#65000
0#
02
0|
0c!
0!"
0)"
0Q"
#70000
1#
b00010000000000000000000000011000 (
12
b00010000000000000000000000011000 7
b00010000000000000000000000011000 D
b00010000000000000000000000011100 E
b00000000000000000000000000000010 F
b00000000000000000000000000000001 J
b00000000000000000000000000000010 L
b00000000000000000000000000000001 a
b00000000000000000000000000000010 c
b00000000000000000000000000000010 e
b00000000000000000000000000000001 p
b00000000000000000000000000000010 r
b00000000000000000000000000000001 u
1{
1|
b00010000000000000000000000011000 !!
b00010000000000000000000000011100 "!
b00010000000000000000000000011000 (!
b00000000011000111000001110110011 +!
1c!
b00000000000000000000000000000010 h!
b0100 v!
1!"
b00010000000000000000000000011000 %"
b00010000000000000000000000011100 &"
b00000000000000000000000000000010 '"
1)"
b00000000000000000000000000000001 ,"
b00000000000000000000000000000010 0"
b00000000000000000000000000000001 9"
1Q"
#70001
b00000000000111100000111000010011 )
b00000000000111100000111000010011 8
b00000000000111100000111000010011 A
b00000000000000000000000000000001 F
b11100 I
b00000000000000000000000000000000 J
b00000000000000000000000000000000 K
b00000000000000000000000000000001 L
b11100 N
b00000 O
b11100 P
b00000000000000000000000000000001 Q
1V
b010000 _
b00000000000000000000000000000000 a
b00000000000000000000000000000001 c
b00000000000000000000000000000001 e
b00000000000000000000000000000000 p
b00000000000000000000000000000001 r
b00000000000000000000000000000000 u
b00000000000000000000000000000000 v
b00000000000111100000111000010011 #!
b00000000000111100000111000010011 )!
b00000000000111100000111000010011 ,!
b11100 -!
b00000 .!
b11100 /!
b010000 0!
b0010011 4!
05!
16!
b11100 9!
b00001 :!
b11100 ;!
b010000 B!
1G!
b00000000000111100000111000010011 P!
b010000 Q!
b00000000000000000000000000000001 R!
0S!
1T!
b00000000001 Y!
b0000 [!
b11100000 \!
b1110 ]!
1^!
0_!
b00000000000000000000000000000001 b!
b00000000000000000000000000000001 h!
b00000000000000000000000000000000 i!
b0010 v!
b00000000000000000000000000000001 '"
b11100 +"
b00000000000000000000000000000000 ,"
b00000 -"
b00000000000000000000000000000000 ."
b11100 /"
b00000000000000000000000000000001 0"
#70002
#75000
0#
02
0|
0c!
0!"
0)"
0Q"
#80000
1#
b00010000000000000000000000011100 (
12
b00010000000000000000000000011100 7
b00010000000000000000000000011100 D
b00010000000000000000000000100000 E
b00000000000000000000000000000010 F
b00000000000000000000000000000001 J
b00000000000000000000000000000010 L
b00000000000000000000000000000001 a
b00000000000000000000000000000010 c
b00000000000000000000000000000010 e
b00000000000000000000000000000001 p
b00000000000000000000000000000010 r
b00000000000000000000000000000001 u
0{
1|
b00010000000000000000000000011100 !!
b00010000000000000000000000100000 "!
b00010000000000000000000000011100 (!
b00000000000111100000111000010011 +!
1c!
b00000000000000000000000000000010 h!
b0100 v!
1!"
b00010000000000000000000000011100 %"
b00010000000000000000000000100000 &"
b00000000000000000000000000000010 '"
1)"
b00000000000000000000000000000001 ,"
b00000000000000000000000000000010 0"
b00000000000000000000000000000001 N"
1Q"
#80001
b11111110010111100001110011100011 )
b11111110010111100001110011100011 8
b11111110010111100001110011100011 A
b00010000000000000000000000010100 F
1G
0H
b00000 I
b00000000000000000000000000000101 K
b00010000000000000000000000010100 L
0M
b00101 O
b00000 P
b11111111111111111111111111111000 Q
b001001 R
1U
b001 \
1]
b001100 _
b00010000000000000000000000011100 a
b11111111111111111111111111111000 b
b00010000000000000000000000010100 c
1d
b00010000000000000000000000010100 e
b00010000000000000000000000011100 p
b11111111111111111111111111111000 q
b00010000000000000000000000010100 r
b00000000000000000000000000000101 v
b001 w
1x
1z
1{
b11111110010111100001110011100011 #!
b11111110010111100001110011100011 )!
b11111110010111100001110011100011 ,!
b00101 .!
b00000 /!
b001100 0!
b001001 1!
b1100011 4!
06!
17!
b00101 :!
b11001 ;!
1=!
b001 >!
b1111111 ?!
1@!
b001100 B!
b001001 C!
0E!
1F!
b001 L!
1M!
b11111110010111100001110011100011 P!
b001100 Q!
b11111111111111111111111111111000 R!
0T!
1U!
1V!
b11111100101 Y!
b111111 Z!
b0010 [!
b11100001 \!
b1100 ]!
1_!
b11111111111111111111 a!
b11111111111111111111111111111000 b!
b00010000000000000000000000010100 h!
b00000000000000000000000000000101 i!
b0001 v!
b00010000000000000000000000010100 '"
1("
b00101 -"
b00000000000000000000000000000101 ."
b00000 /"
b00010000000000000000000000010100 0"
01"
1U"
#80002
#85000
0#
02
0|
0c!
0!"
0)"
0Q"
#90000
1#
b00010000000000000000000000010100 (
12
b00010000000000000000000000010100 7
b00010000000000000000000000010100 D
b00010000000000000000000000011000 E
b00010000000000000000000000001100 F
b00010000000000000000000000001100 L
b00010000000000000000000000010100 a
b00010000000000000000000000001100 c
b00010000000000000000000000001100 e
b00010000000000000000000000010100 p
b00010000000000000000000000001100 r
1|
b00010000000000000000000000010100 !!
b00010000000000000000000000011000 "!
b00010000000000000000000000010100 (!
b11111110010111100001110011100011 +!
1c!
b00010000000000000000000000001100 h!
1!"
b00010000000000000000000000010100 %"
b00010000000000000000000000011000 &"
b00010000000000000000000000001100 '"
1)"
b00010000000000000000000000001100 0"
1Q"
#90001
b00000000011000111000001110110011 )
b00000000011000111000001110110011 8
b00000000011000111000001110110011 A
b00000000000000000000000000000010 F
0G
1H
b00111 I
b00000000000000000000000000000001 K
b00000000000000000000000000000010 L
1M
b00111 N
b00110 O
b00111 P
b00000000000000000000000000000000 Q
b000000 R
0U
0V
b000 \
0]
b100000 _
b00000000000000000000000000000001 a
b00000000000000000000000000000001 b
b00000000000000000000000000000010 c
0d
b00000000000000000000000000000010 e
b00000000000000000000000000000001 p
b00000000000000000000000000000001 q
b00000000000000000000000000000010 r
b00000000000000000000000000000001 v
b000 w
0x
0z
b00000000011000111000001110110011 #!
b00000000011000111000001110110011 )!
b00000000011000111000001110110011 ,!
b00111 -!
b00110 .!
b00111 /!
b100000 0!
b000000 1!
b0110011 4!
15!
07!
b00111 9!
b00110 :!
b00111 ;!
0=!
b000 >!
b0000000 ?!
0@!
b100000 B!
b000000 C!
1E!
0F!
0G!
b000 L!
0M!
b00000000011000111000001110110011 P!
b100000 Q!
b00000000000000000000000000000000 R!
1S!
0U!
0V!
b00000000110 Y!
b000000 Z!
b0011 [!
b00111000 \!
b0011 ]!
0^!
b00000000000000000000 a!
b00000000000000000000000000000110 b!
b00000000000000000000000000000010 h!
b00000000000000000000000000000001 i!
b0100 v!
b00000000000000000000000000000010 '"
0("
b00111 +"
b00110 -"
b00000000000000000000000000000001 ."
b00111 /"
b00000000000000000000000000000010 0"
11"
0U"
#90002
